<svg width="343" height="100" viewBox="0 0 343 100" fill="none" xmlns="http://www.w3.org/2000/svg">
<rect width="343" height="100" rx="50" fill="#19C774"/>
<path d="M84.4771 47.4644L75.5562 40.9429C75.2896 40.7275 74.9614 40.625 74.623 40.625C74.418 40.625 74.2129 40.666 74.0181 40.748C73.5054 40.9736 73.1875 41.4658 73.1875 41.9888V45.8955L66.625 45.8853C65.1689 45.8853 64 47.0542 64 48.5C64 49.9458 65.1689 51.1147 66.625 51.1147L73.1875 51.125V55.0317C73.1875 55.5547 73.5054 56.0264 74.0181 56.252C74.2129 56.334 74.418 56.375 74.623 56.375C74.9614 56.375 75.2896 56.2725 75.5562 56.0571L84.4771 49.5356C84.8154 49.2896 85 48.8999 85 48.5C85 48.1001 84.8154 47.7104 84.4771 47.4644ZM74.7769 55.001L74.7666 55.0112L74.7461 55.0317C74.7256 55.042 74.6743 55.0625 74.6333 55.0625C74.6025 55.0625 74.5615 55.0522 74.5308 55.042C74.5205 55.0317 74.5103 55.0317 74.5 55.0317V49.8125L66.625 49.8022C65.897 49.8022 65.3125 49.2178 65.3125 48.5C65.3125 47.7822 65.897 47.1978 66.625 47.1978L74.5 47.208V41.999C74.5 41.9888 74.5 41.9683 74.541 41.958C74.5615 41.9478 74.5923 41.9375 74.623 41.9375C74.6846 41.9375 74.7256 41.958 74.7461 41.9683L74.7563 41.9888L74.7769 41.999L83.6772 48.5L74.7769 55.001Z" fill="#323535"/>
<path d="M102.541 55V51.3045C102.541 51.1398 102.541 50.9403 102.541 50.706C102.541 50.4717 102.541 50.2342 102.541 49.9935C102.541 49.7465 102.541 49.5407 102.541 49.376C102.541 48.4703 102.354 47.7832 101.98 47.3145C101.613 46.8458 101.008 46.6115 100.166 46.6115C99.6018 46.6115 99.1142 46.7223 98.7025 46.944C98.2908 47.1657 97.971 47.4697 97.743 47.856C97.5213 48.2423 97.4105 48.6825 97.4105 49.1765L96.4415 48.7775C96.4415 48.0112 96.6252 47.3272 96.9925 46.7255C97.3662 46.1175 97.876 45.6362 98.522 45.2815C99.1743 44.9268 99.9185 44.7495 100.755 44.7495C101.971 44.7495 102.914 45.1137 103.586 45.842C104.263 46.564 104.602 47.571 104.602 48.863C104.602 49.1923 104.602 49.5818 104.602 50.0315C104.602 50.4748 104.602 50.9593 104.602 51.485V55H102.541ZM95.349 55V40.1515H97.4105V55H95.349ZM107.937 50.6775V49.072H115.366L115.081 49.547C115.081 49.509 115.081 49.471 115.081 49.433C115.081 49.3887 115.081 49.3507 115.081 49.319C115.081 48.806 114.97 48.3342 114.748 47.9035C114.527 47.4665 114.194 47.1182 113.751 46.8585C113.314 46.5925 112.766 46.4595 112.107 46.4595C111.449 46.4595 110.869 46.602 110.369 46.887C109.875 47.1657 109.489 47.5647 109.21 48.084C108.938 48.597 108.801 49.2145 108.801 49.9365C108.801 50.6712 108.934 51.3045 109.2 51.8365C109.466 52.3622 109.85 52.7675 110.35 53.0525C110.85 53.3375 111.449 53.48 112.145 53.48C112.633 53.48 113.054 53.4325 113.409 53.3375C113.77 53.2362 114.064 53.1032 114.292 52.9385C114.527 52.7738 114.704 52.5965 114.824 52.4065C114.945 52.2102 115.014 52.017 115.033 51.827H117.085C117.047 52.2387 116.911 52.6472 116.677 53.0525C116.449 53.4515 116.123 53.8157 115.698 54.145C115.28 54.468 114.767 54.7277 114.159 54.924C113.558 55.114 112.864 55.209 112.079 55.209C111.028 55.209 110.106 54.9873 109.314 54.544C108.523 54.1007 107.905 53.4863 107.462 52.701C107.019 51.9093 106.797 51.0037 106.797 49.984C106.797 48.9453 107.022 48.0333 107.471 47.248C107.921 46.4627 108.545 45.8515 109.343 45.4145C110.141 44.9712 111.056 44.7495 112.088 44.7495C113.14 44.7495 114.049 44.9712 114.815 45.4145C115.588 45.8578 116.183 46.469 116.601 47.248C117.019 48.027 117.228 48.9232 117.228 49.9365C117.228 50.0568 117.225 50.1962 117.218 50.3545C117.212 50.5128 117.203 50.6205 117.19 50.6775H107.937ZM117.93 59.275C117.752 59.275 117.585 59.2687 117.426 59.256C117.268 59.2433 117.138 59.2275 117.037 59.2085V57.66C117.138 57.6853 117.271 57.7075 117.436 57.7265C117.594 57.7455 117.759 57.755 117.93 57.755C118.329 57.755 118.642 57.6948 118.87 57.5745C119.105 57.4605 119.276 57.3085 119.383 57.1185C119.497 56.9348 119.57 56.729 119.602 56.501C119.64 56.273 119.659 56.0513 119.659 55.836V44.911H121.72V55.9025C121.72 56.3205 121.676 56.729 121.587 57.128C121.499 57.527 121.324 57.888 121.065 58.211C120.811 58.534 120.435 58.7905 119.934 58.9805C119.434 59.1768 118.766 59.275 117.93 59.275ZM120.723 42.821C120.374 42.821 120.07 42.726 119.811 42.536C119.551 42.3397 119.421 42.0705 119.421 41.7285C119.421 41.3928 119.551 41.13 119.811 40.94C120.07 40.7437 120.374 40.6455 120.723 40.6455C121.077 40.6455 121.381 40.7437 121.635 40.94C121.894 41.13 122.024 41.3928 122.024 41.7285C122.024 42.0705 121.894 42.3397 121.635 42.536C121.381 42.726 121.077 42.821 120.723 42.821ZM137.875 53.8885C137.413 54.1418 136.836 54.3635 136.146 54.5535C135.456 54.7435 134.702 54.8892 133.885 54.9905C133.068 55.0855 132.235 55.133 131.386 55.133C129.86 55.133 128.536 54.8828 127.415 54.3825C126.301 53.8758 125.439 53.1475 124.831 52.1975C124.23 51.2475 123.929 50.098 123.929 48.749C123.929 47.6153 124.151 46.5703 124.594 45.614C125.044 44.6513 125.674 43.8153 126.484 43.106C127.301 42.3903 128.261 41.8362 129.363 41.4435C130.471 41.0445 131.684 40.845 133.001 40.845C134.148 40.845 135.164 41.0002 136.051 41.3105C136.944 41.6145 137.691 42.0357 138.293 42.574C138.901 43.1123 139.36 43.733 139.67 44.436C139.987 45.139 140.145 45.8863 140.145 46.678C140.145 47.4317 140.022 48.141 139.775 48.806C139.534 49.4647 139.183 50.041 138.72 50.535C138.258 51.029 137.694 51.4185 137.029 51.7035C136.371 51.9822 135.617 52.1215 134.768 52.1215C134.521 52.1215 134.268 52.0962 134.008 52.0455C133.749 51.9885 133.53 51.8872 133.353 51.7415C133.182 51.5895 133.093 51.371 133.087 51.086C133.087 51.0797 133.087 51.0702 133.087 51.0575C133.087 51.0448 133.087 51.0353 133.087 51.029C132.935 51.3393 132.669 51.5895 132.289 51.7795C131.909 51.9632 131.453 52.055 130.921 52.055C130.256 52.055 129.705 51.9188 129.268 51.6465C128.837 51.3742 128.514 50.9942 128.299 50.5065C128.09 50.0125 127.985 49.4425 127.985 48.7965C127.985 47.8782 128.169 47.0675 128.536 46.3645C128.91 45.6552 129.417 45.0978 130.056 44.6925C130.702 44.2808 131.437 44.075 132.26 44.075C132.805 44.075 133.248 44.1827 133.59 44.398C133.939 44.607 134.113 44.8445 134.113 45.1105L134.331 44.284H135.747L134.341 50.0315C134.335 50.0758 134.325 50.1265 134.312 50.1835C134.306 50.2342 134.303 50.269 134.303 50.288C134.303 50.5667 134.392 50.7598 134.569 50.8675C134.746 50.9752 134.962 51.029 135.215 51.029C135.867 51.029 136.412 50.9023 136.849 50.649C137.292 50.3893 137.644 50.0473 137.903 49.623C138.163 49.1987 138.35 48.73 138.464 48.217C138.578 47.6977 138.635 47.1783 138.635 46.659C138.635 45.709 138.404 44.8793 137.941 44.17C137.485 43.4607 136.827 42.9097 135.965 42.517C135.104 42.1243 134.078 41.928 132.887 41.928C131.766 41.928 130.75 42.099 129.838 42.441C128.926 42.7767 128.141 43.2548 127.482 43.8755C126.83 44.4898 126.326 45.215 125.971 46.051C125.623 46.8807 125.449 47.7863 125.449 48.768C125.449 49.927 125.699 50.8992 126.199 51.6845C126.706 52.4698 127.409 53.062 128.308 53.461C129.208 53.86 130.256 54.0595 131.453 54.0595C132.156 54.0595 132.849 54.0152 133.533 53.9265C134.224 53.8378 134.873 53.7112 135.481 53.5465C136.089 53.3818 136.618 53.1855 137.067 52.9575L137.875 53.8885ZM131.158 50.9815C131.659 50.9815 132.048 50.8802 132.327 50.6775C132.612 50.4748 132.802 50.1835 132.897 49.8035C132.903 49.7845 132.932 49.6705 132.982 49.4615C133.033 49.2525 133.096 48.9992 133.172 48.7015C133.248 48.3975 133.324 48.0903 133.4 47.78C133.476 47.4697 133.543 47.1973 133.6 46.963C133.657 46.7223 133.692 46.5672 133.704 46.4975C133.736 46.3645 133.752 46.2473 133.752 46.146C133.752 45.8673 133.654 45.6267 133.457 45.424C133.267 45.215 132.929 45.1105 132.441 45.1105C131.871 45.1105 131.361 45.2815 130.911 45.6235C130.468 45.9655 130.12 46.4215 129.866 46.9915C129.619 47.5615 129.496 48.1822 129.496 48.8535C129.496 49.5312 129.638 50.0568 129.923 50.4305C130.215 50.7978 130.626 50.9815 131.158 50.9815ZM150.198 55V50.345C150.198 50.0727 150.198 49.8415 150.198 49.6515C150.198 49.4615 150.198 49.2842 150.198 49.1195C150.198 48.6255 150.122 48.1917 149.97 47.818C149.818 47.438 149.568 47.1435 149.219 46.9345C148.871 46.7192 148.406 46.6115 147.823 46.6115C147.31 46.6115 146.844 46.7382 146.426 46.9915C146.015 47.2448 145.685 47.59 145.438 48.027C145.198 48.4577 145.077 48.9485 145.077 49.4995L144.194 49.0625C144.194 48.2455 144.387 47.514 144.773 46.868C145.16 46.2157 145.676 45.6995 146.322 45.3195C146.974 44.9395 147.687 44.7495 148.459 44.7495C149.257 44.7495 149.938 44.9047 150.502 45.215C151.072 45.519 151.506 45.956 151.803 46.526C152.107 47.0897 152.259 47.7642 152.259 48.5495C152.259 48.8408 152.259 49.1638 152.259 49.5185C152.259 49.8732 152.259 50.2152 152.259 50.5445V55H150.198ZM143.016 55V44.911H145.077V55H143.016ZM155.585 50.6775V49.072H163.014L162.729 49.547C162.729 49.509 162.729 49.471 162.729 49.433C162.729 49.3887 162.729 49.3507 162.729 49.319C162.729 48.806 162.619 48.3342 162.397 47.9035C162.175 47.4665 161.843 47.1182 161.399 46.8585C160.962 46.5925 160.415 46.4595 159.756 46.4595C159.097 46.4595 158.518 46.602 158.017 46.887C157.523 47.1657 157.137 47.5647 156.858 48.084C156.586 48.597 156.45 49.2145 156.45 49.9365C156.45 50.6712 156.583 51.3045 156.849 51.8365C157.115 52.3622 157.498 52.7675 157.998 53.0525C158.499 53.3375 159.097 53.48 159.794 53.48C160.282 53.48 160.703 53.4325 161.057 53.3375C161.418 53.2362 161.713 53.1032 161.941 52.9385C162.175 52.7738 162.353 52.5965 162.473 52.4065C162.593 52.2102 162.663 52.017 162.682 51.827H164.734C164.696 52.2387 164.56 52.6472 164.325 53.0525C164.097 53.4515 163.771 53.8157 163.347 54.145C162.929 54.468 162.416 54.7277 161.808 54.924C161.206 55.114 160.513 55.209 159.727 55.209C158.676 55.209 157.755 54.9873 156.963 54.544C156.171 54.1007 155.554 53.4863 155.11 52.701C154.667 51.9093 154.445 51.0037 154.445 49.984C154.445 48.9453 154.67 48.0333 155.12 47.248C155.57 46.4627 156.193 45.8515 156.991 45.4145C157.789 44.9712 158.705 44.7495 159.737 44.7495C160.788 44.7495 161.697 44.9712 162.463 45.4145C163.236 45.8578 163.831 46.469 164.249 47.248C164.667 48.027 164.876 48.9232 164.876 49.9365C164.876 50.0568 164.873 50.1962 164.867 50.3545C164.861 50.5128 164.851 50.6205 164.838 50.6775H155.585ZM175.065 55L172.481 44.911H174.153L176.632 54.2495H176.281L177.896 44.911H180.033L177.905 55H175.065ZM168.177 55L166.04 44.911H168.177L169.811 54.2495H169.45L171.911 44.911H173.583L171.037 55H168.177ZM188.092 55V50.725C188.092 50.3387 188.092 50.0062 188.092 49.7275C188.092 49.4425 188.092 49.2018 188.092 49.0055C188.092 48.7585 188.073 48.4957 188.035 48.217C188.004 47.9383 187.928 47.6787 187.807 47.438C187.693 47.191 187.513 46.9915 187.266 46.8395C187.019 46.6875 186.68 46.6115 186.249 46.6115C185.819 46.6115 185.455 46.697 185.157 46.868C184.859 47.039 184.619 47.267 184.435 47.552C184.251 47.8307 184.118 48.1442 184.036 48.4925C183.954 48.8345 183.912 49.1797 183.912 49.528L183.038 49.053C183.038 48.2613 183.194 47.5425 183.504 46.8965C183.821 46.2442 184.264 45.7248 184.834 45.3385C185.41 44.9458 186.088 44.7495 186.867 44.7495C187.659 44.7495 188.292 44.9142 188.767 45.2435C189.248 45.5665 189.597 46.0098 189.812 46.5735C190.027 47.1308 190.135 47.7642 190.135 48.4735C190.135 48.7332 190.135 49.072 190.135 49.49C190.135 49.908 190.135 50.3925 190.135 50.9435V55H188.092ZM181.851 55V44.911H183.912V55H181.851ZM194.305 55V50.7345C194.305 50.3165 194.305 49.9682 194.305 49.6895C194.305 49.4045 194.305 49.167 194.305 48.977C194.305 48.7173 194.29 48.4513 194.258 48.179C194.226 47.9003 194.15 47.6438 194.03 47.4095C193.91 47.1752 193.723 46.9852 193.469 46.8395C193.222 46.6875 192.877 46.6115 192.434 46.6115C191.997 46.6115 191.63 46.697 191.332 46.868C191.041 47.0327 190.806 47.2543 190.629 47.533C190.452 47.8053 190.325 48.1062 190.249 48.4355C190.173 48.7648 190.135 49.091 190.135 49.414L189.261 48.958C189.261 48.198 189.413 47.4982 189.717 46.8585C190.027 46.2188 190.464 45.709 191.028 45.329C191.598 44.9427 192.272 44.7495 193.051 44.7495C193.811 44.7495 194.435 44.9015 194.923 45.2055C195.411 45.5095 195.772 45.9307 196.006 46.469C196.24 47.0073 196.357 47.6312 196.357 48.3405C196.357 48.6128 196.357 48.9548 196.357 49.3665C196.357 49.7782 196.357 50.2563 196.357 50.801V55H194.305ZM203.85 55.19C202.812 55.19 201.893 54.9652 201.095 54.5155C200.304 54.0658 199.683 53.4483 199.233 52.663C198.79 51.8713 198.568 50.9657 198.568 49.946C198.568 48.9327 198.79 48.0365 199.233 47.2575C199.683 46.4722 200.304 45.861 201.095 45.424C201.893 44.9807 202.812 44.759 203.85 44.759C204.889 44.759 205.804 44.9807 206.596 45.424C207.394 45.861 208.015 46.4722 208.458 47.2575C208.908 48.0365 209.132 48.9327 209.132 49.946C209.132 50.9657 208.908 51.8713 208.458 52.663C208.015 53.4483 207.394 54.0658 206.596 54.5155C205.804 54.9652 204.889 55.19 203.85 55.19ZM203.85 53.423C204.484 53.423 205.041 53.2805 205.522 52.9955C206.004 52.7105 206.381 52.3083 206.653 51.789C206.925 51.2633 207.061 50.649 207.061 49.946C207.061 49.2493 206.925 48.6445 206.653 48.1315C206.381 47.6185 206.004 47.2227 205.522 46.944C205.041 46.6653 204.484 46.526 203.85 46.526C203.223 46.526 202.666 46.6653 202.178 46.944C201.697 47.2227 201.32 47.6185 201.048 48.1315C200.776 48.6445 200.639 49.2493 200.639 49.946C200.639 50.649 200.776 51.2633 201.048 51.789C201.32 52.3083 201.697 52.7105 202.178 52.9955C202.666 53.2805 203.223 53.423 203.85 53.423ZM215.573 55.171C215.237 55.171 214.902 55.1362 214.566 55.0665C214.237 54.9968 213.933 54.8702 213.654 54.6865C213.382 54.4965 213.163 54.2273 212.999 53.879C212.834 53.5307 212.752 53.0747 212.752 52.511C212.752 52.378 212.752 52.2387 212.752 52.093C212.752 51.9473 212.752 51.7985 212.752 51.6465V46.621H210.329V44.911H211.602C211.874 44.911 212.087 44.9015 212.239 44.8825C212.397 44.8572 212.511 44.8033 212.581 44.721C212.657 44.6323 212.704 44.493 212.723 44.303C212.742 44.113 212.752 43.8533 212.752 43.524V41.5765H214.813V44.911H217.901V46.621H214.813V51.0955C214.813 51.2222 214.813 51.3488 214.813 51.4755C214.813 51.6022 214.813 51.7193 214.813 51.827C214.813 52.3337 214.873 52.7327 214.994 53.024C215.12 53.3153 215.405 53.461 215.849 53.461C216.039 53.461 216.219 53.4452 216.39 53.4135C216.561 53.3818 216.691 53.347 216.78 53.309V54.9905C216.666 55.0348 216.504 55.076 216.295 55.114C216.086 55.152 215.845 55.171 215.573 55.171ZM219.898 55V44.911H221.931V55H219.898ZM220.924 42.821C220.569 42.821 220.262 42.726 220.003 42.536C219.749 42.3397 219.623 42.0705 219.623 41.7285C219.623 41.3928 219.749 41.13 220.003 40.94C220.262 40.7437 220.569 40.6455 220.924 40.6455C221.272 40.6455 221.573 40.7437 221.827 40.94C222.086 41.13 222.216 41.3928 222.216 41.7285C222.216 42.0705 222.086 42.3397 221.827 42.536C221.573 42.726 221.272 42.821 220.924 42.821ZM233.14 44.911L229.872 55H227.136L223.782 44.911H225.91L228.665 54.1355H228.342L231.012 44.911H233.14ZM235.166 50.6775V49.072H242.595L242.31 49.547C242.31 49.509 242.31 49.471 242.31 49.433C242.31 49.3887 242.31 49.3507 242.31 49.319C242.31 48.806 242.2 48.3342 241.978 47.9035C241.756 47.4665 241.424 47.1182 240.98 46.8585C240.543 46.5925 239.996 46.4595 239.337 46.4595C238.678 46.4595 238.099 46.602 237.598 46.887C237.104 47.1657 236.718 47.5647 236.439 48.084C236.167 48.597 236.031 49.2145 236.031 49.9365C236.031 50.6712 236.164 51.3045 236.43 51.8365C236.696 52.3622 237.079 52.7675 237.579 53.0525C238.08 53.3375 238.678 53.48 239.375 53.48C239.863 53.48 240.284 53.4325 240.638 53.3375C240.999 53.2362 241.294 53.1032 241.522 52.9385C241.756 52.7738 241.934 52.5965 242.054 52.4065C242.174 52.2102 242.244 52.017 242.263 51.827H244.315C244.277 52.2387 244.141 52.6472 243.906 53.0525C243.678 53.4515 243.352 53.8157 242.928 54.145C242.51 54.468 241.997 54.7277 241.389 54.924C240.787 55.114 240.094 55.209 239.308 55.209C238.257 55.209 237.336 54.9873 236.544 54.544C235.752 54.1007 235.135 53.4863 234.691 52.701C234.248 51.9093 234.026 51.0037 234.026 49.984C234.026 48.9453 234.251 48.0333 234.701 47.248C235.151 46.4627 235.774 45.8515 236.572 45.4145C237.37 44.9712 238.286 44.7495 239.318 44.7495C240.369 44.7495 241.278 44.9712 242.044 45.4145C242.817 45.8578 243.412 46.469 243.83 47.248C244.248 48.027 244.457 48.9232 244.457 49.9365C244.457 50.0568 244.454 50.1962 244.448 50.3545C244.442 50.5128 244.432 50.6205 244.419 50.6775H235.166ZM247.962 55.2565C247.607 55.2565 247.306 55.1362 247.059 54.8955C246.819 54.6548 246.698 54.3572 246.698 54.0025C246.698 53.6542 246.819 53.3597 247.059 53.119C247.306 52.872 247.607 52.7485 247.962 52.7485C248.304 52.7485 248.598 52.872 248.845 53.119C249.092 53.3597 249.216 53.6542 249.216 54.0025C249.216 54.3572 249.092 54.6548 248.845 54.8955C248.598 55.1362 248.304 55.2565 247.962 55.2565ZM255.829 55.1995C255.227 55.1995 254.66 55.133 254.128 55C253.596 54.867 253.128 54.6738 252.722 54.4205C252.323 54.1608 252.01 53.841 251.782 53.461C251.56 53.081 251.449 52.6408 251.449 52.1405C251.449 52.0962 251.449 52.0518 251.449 52.0075C251.449 51.9568 251.449 51.9157 251.449 51.884H253.501C253.501 51.9157 253.501 51.9442 253.501 51.9695C253.501 51.9948 253.501 52.0297 253.501 52.074C253.501 52.5363 253.713 52.8878 254.138 53.1285C254.568 53.3628 255.151 53.48 255.886 53.48C256.316 53.48 256.709 53.4357 257.064 53.347C257.425 53.2583 257.71 53.1222 257.919 52.9385C258.134 52.7548 258.242 52.5205 258.242 52.2355C258.242 51.7732 258.014 51.4438 257.558 51.2475C257.108 51.0512 256.424 50.877 255.506 50.725C255.005 50.6363 254.521 50.5223 254.052 50.383C253.59 50.2437 253.172 50.06 252.798 49.832C252.431 49.5977 252.136 49.3095 251.915 48.9675C251.699 48.6192 251.592 48.2012 251.592 47.7135C251.592 47.0802 251.782 46.5418 252.162 46.0985C252.542 45.6552 253.055 45.3195 253.701 45.0915C254.347 44.8635 255.059 44.7495 255.838 44.7495C256.592 44.7495 257.289 44.873 257.928 45.12C258.574 45.3607 259.094 45.7122 259.486 46.1745C259.879 46.6305 260.075 47.191 260.075 47.856C260.075 47.8813 260.075 47.9098 260.075 47.9415C260.075 47.9732 260.075 48.0017 260.075 48.027H258.033C258.033 48.0017 258.033 47.9795 258.033 47.9605C258.033 47.9415 258.033 47.9193 258.033 47.894C258.033 47.5647 257.928 47.2955 257.719 47.0865C257.51 46.8775 257.238 46.7223 256.902 46.621C256.573 46.5133 256.221 46.4595 255.848 46.4595C255.506 46.4595 255.161 46.4975 254.812 46.5735C254.47 46.6432 254.185 46.7667 253.957 46.944C253.729 47.115 253.615 47.3493 253.615 47.647C253.615 47.951 253.726 48.1948 253.948 48.3785C254.169 48.5558 254.483 48.7047 254.888 48.825C255.294 48.939 255.765 49.0435 256.304 49.1385C256.798 49.2272 257.279 49.3412 257.748 49.4805C258.216 49.6135 258.638 49.7908 259.011 50.0125C259.391 50.2342 259.692 50.5192 259.914 50.8675C260.142 51.2158 260.256 51.6433 260.256 52.15C260.256 52.6757 260.135 53.1285 259.895 53.5085C259.654 53.8885 259.325 54.2052 258.907 54.4585C258.495 54.7055 258.023 54.8892 257.491 55.0095C256.966 55.1362 256.411 55.1995 255.829 55.1995ZM263.258 50.6775V49.072H270.687L270.402 49.547C270.402 49.509 270.402 49.471 270.402 49.433C270.402 49.3887 270.402 49.3507 270.402 49.319C270.402 48.806 270.291 48.3342 270.07 47.9035C269.848 47.4665 269.516 47.1182 269.072 46.8585C268.635 46.5925 268.087 46.4595 267.429 46.4595C266.77 46.4595 266.191 46.602 265.69 46.887C265.196 47.1657 264.81 47.5647 264.531 48.084C264.259 48.597 264.123 49.2145 264.123 49.9365C264.123 50.6712 264.256 51.3045 264.522 51.8365C264.788 52.3622 265.171 52.7675 265.671 53.0525C266.172 53.3375 266.77 53.48 267.467 53.48C267.954 53.48 268.376 53.4325 268.73 53.3375C269.091 53.2362 269.386 53.1032 269.614 52.9385C269.848 52.7738 270.025 52.5965 270.146 52.4065C270.266 52.2102 270.336 52.017 270.355 51.827H272.407C272.369 52.2387 272.233 52.6472 271.998 53.0525C271.77 53.4515 271.444 53.8157 271.02 54.145C270.602 54.468 270.089 54.7277 269.481 54.924C268.879 55.114 268.186 55.209 267.4 55.209C266.349 55.209 265.427 54.9873 264.636 54.544C263.844 54.1007 263.227 53.4863 262.783 52.701C262.34 51.9093 262.118 51.0037 262.118 49.984C262.118 48.9453 262.343 48.0333 262.793 47.248C263.242 46.4627 263.866 45.8515 264.664 45.4145C265.462 44.9712 266.377 44.7495 267.41 44.7495C268.461 44.7495 269.37 44.9712 270.136 45.4145C270.909 45.8578 271.504 46.469 271.922 47.248C272.34 48.027 272.549 48.9232 272.549 49.9365C272.549 50.0568 272.546 50.1962 272.54 50.3545C272.533 50.5128 272.524 50.6205 272.511 50.6775H263.258Z" fill="#323535"/>
</svg>
