<svg width="343" height="100" viewBox="0 0 343 100" fill="none" xmlns="http://www.w3.org/2000/svg">
<rect width="343" height="100" rx="50" fill="#B0B8B7"/>
<g clip-path="url(#clip0_334_244)">
<path d="M133.219 57.4108C133.219 61.4366 129.37 62.929 125.938 62.929C123.998 62.9376 122.068 62.6449 120.217 62.0613L120.425 58.7643C121.955 59.5639 123.657 59.9807 125.383 59.979C126.735 59.979 128.746 59.4237 128.746 57.7926C128.746 54.2873 120.148 55.7102 120.148 50.088C120.148 46.201 124.274 44.9169 127.394 44.9169C129.1 44.9392 130.793 45.208 132.422 45.7151L132.214 48.7692C130.769 48.1875 129.228 47.8814 127.671 47.8668C126.389 47.8668 124.586 48.2139 124.586 49.9144C124.586 52.6562 133.219 51.5456 133.219 57.4108ZM152.462 53.8362C152.462 59.4237 149.064 62.929 143.517 62.929C137.865 62.929 134.571 59.389 134.571 53.8362C134.571 48.1792 138.281 44.9169 143.517 44.9169C149.03 44.9169 152.462 48.1445 152.462 53.8362ZM147.435 53.8362C147.435 51.1985 146.568 48.1445 143.517 48.1445C140.57 48.1445 139.599 51.1985 139.599 53.8362C139.599 56.682 140.57 59.6667 143.517 59.6667C146.464 59.6667 147.435 56.7167 147.435 53.8362ZM170.596 62.5472H166.158L166.054 59.6667C164.944 61.8184 162.933 62.929 160.541 62.929C156.415 62.929 154.785 60.3955 154.785 56.4391V45.2986H159.501V55.3632C159.501 57.4108 159.813 59.4931 162.344 59.4931C165.014 59.4931 165.742 57.0638 165.742 54.7732V45.2986H170.457V58.6602C170.418 59.9575 170.464 61.2561 170.596 62.5472ZM183.91 62.2696C182.647 62.6962 181.325 62.9188 179.992 62.929C176.109 62.929 175.173 60.4302 175.173 56.8208V48.4221H172.122V45.2986H175.173V41.7934L179.888 40.2316V45.2986H183.702V48.4221H179.888V56.8902C179.888 58.3479 180.27 59.4931 181.934 59.4931C182.577 59.4906 183.213 59.3608 183.806 59.1114L183.91 62.2696ZM201.558 62.5472H196.843V52.4479C196.843 50.4003 196.496 48.3527 193.965 48.3527C191.33 48.3527 190.567 50.7474 190.567 53.0032V62.5472H185.852V37.7675H190.567V48.1445C191.573 46.0274 193.445 44.9516 195.803 44.9516C199.825 44.9516 201.524 47.4157 201.524 51.3374V62.5472H201.558ZM231.099 53.8362C231.099 58.4867 229.158 62.929 223.922 62.929C221.773 62.929 219.692 61.7837 218.86 59.7708V69.9742H214.145V50.2962C214.145 48.2486 214.075 46.7215 213.971 45.2639H218.444L218.548 48.1792C219.519 46.0968 221.773 44.9169 224.026 44.9169C229.192 44.9169 231.099 49.2203 231.099 53.8362ZM226.037 53.8362C226.037 51.3721 225.448 48.2486 222.397 48.2486C219.449 48.2486 218.687 51.4068 218.687 53.8362C218.687 56.1961 219.449 59.5626 222.362 59.5626C225.448 59.5973 226.037 56.3002 226.037 53.8362ZM250.481 53.8362C250.481 59.4237 247.083 62.929 241.536 62.929C235.884 62.929 232.59 59.389 232.59 53.8362C232.59 48.1792 236.3 44.9169 241.536 44.9169C247.014 44.9169 250.481 48.1445 250.481 53.8362ZM245.419 53.8362C245.419 51.1985 244.552 48.1445 241.501 48.1445C238.554 48.1445 237.583 51.1985 237.583 53.8362C237.583 56.682 238.554 59.6667 241.501 59.6667C244.448 59.6667 245.419 56.7167 245.419 53.8362ZM257.589 62.5472H252.874V37.7675H257.589V62.5472ZM276 55.1203H264.662C264.697 58.1049 266.881 59.979 269.759 59.979C271.389 59.979 273.469 59.5973 274.891 58.799L275.099 61.9919C273.192 62.686 270.834 62.929 268.788 62.929C263.067 62.929 259.982 59.5626 259.982 53.8362C259.982 48.6998 263.379 44.9169 268.338 44.9169C273.816 44.9169 276 48.8039 276 54.0444V55.1203ZM271.701 52.5521C271.701 50.4003 270.938 47.7627 268.372 47.7627C265.737 47.7627 264.662 50.5044 264.662 52.5521H271.701ZM74.1372 68.9677C70.174 64.7793 67.976 59.2232 68.0002 53.4544C68.0002 41.0646 77.9512 31 90.2252 31C102.499 31 112.416 41.0646 112.416 53.4544C112.427 57.7937 111.181 62.0432 108.831 65.6893C106.481 69.3354 103.125 72.2219 99.1707 74V73.5141C99.1707 68.7248 98.2346 58.6949 92.0629 52.0315C91.7508 51.7191 92.0629 49.6368 95.3568 47.2421C98.6506 44.8475 103.886 46.2704 103.886 45.8192C103.886 45.368 101.806 44.8127 99.6215 44.3963C97.4371 43.9798 94.4206 43.9104 92.999 43.4245C91.5775 42.9387 89.2197 41.0299 86.862 41.5157C84.5043 42.0016 82.9094 43.2857 81.6611 45.8192C80.725 47.728 81.6611 49.1509 79.7542 51.0597C75.9055 55.0161 74.1719 63.2413 74.1372 68.9677Z" fill="#323535"/>
</g>
<defs>
<clipPath id="clip0_334_244">
<rect width="208" height="43" fill="white" transform="translate(68 31)"/>
</clipPath>
</defs>
</svg>
