<svg width="245" height="48" viewBox="0 0 245 48" fill="none" xmlns="http://www.w3.org/2000/svg">
<g clip-path="url(#clip0_117_78)">
<path d="M0 47.1404C0 44.5755 0.0616844 34.3771 0.0616844 24.1787C0.0616844 13.9802 0 3.78167 0 1.21679L7.5312 0.483887L12.0377 18.0718L13.7044 26.5603H14.0748L13.581 13.6748L13.1401 1.15566L21.2268 0.483887V46.774L13.8808 47.1404L9.31262 27.9473L7.70764 18.9093H7.35486L7.72529 29.6574L8.03393 46.8177L0 47.1404Z" fill="#F44E55"/>
<path d="M30.246 0.789721L38.0287 0.353516V7.37646L32.4684 7.7428V14.8269L37.1645 14.5214V20.5063L32.4684 20.8115V40.0045L38.399 41.3481L34.5717 47.8213L24.3242 45.3176C24.3242 42.997 24.3816 34.0199 24.3816 25.1039C24.3816 16.1879 24.3242 7.27165 24.3242 5.07318L30.246 0.789721Z" fill="#F44E55"/>
<path d="M40.6133 44.6982C40.6133 42.5171 40.6751 32.4233 40.6751 22.4517C40.6751 12.4801 40.6133 2.78758 40.6133 1.07765L48.7619 0.466797V41.1998L52.2894 43.2149V1.11684L60.438 0.5062V41.239L64.0185 43.3154V1.11684L72.167 0.5062C72.1053 2.4604 72.1053 11.8474 72.1053 21.3305C72.1053 30.8136 72.1053 40.262 72.167 42.2162L59.2034 47.7733L53.4712 45.2696L47.6066 47.7733L40.6133 44.6982Z" fill="#F44E55"/>
<path d="M98.705 28.4538L103.273 1.21718L112.842 0.54541L113.089 46.8355L105.372 47.1408L105.557 27.2325L105.928 17.9499H105.487L104.19 27.5465L100.98 44.8901L96.2886 45.1344L93.202 27.8519L91.9057 17.7755H91.4647L91.7734 26.0197L91.9587 46.8443L84.2422 47.1495C84.3039 36.035 84.4273 19.5465 84.4273 6.9707V1.22592L94.1809 0.615271L98.705 28.4538Z" fill="#F44E55"/>
<path d="M127.841 0L172.094 3.11882L175.489 7.8649V41.4961L123.952 47.9958L115.988 44.9423C115.988 41.8889 116.05 33.2171 116.05 24.6675C116.05 16.1179 115.988 7.62917 115.988 5.06428L127.841 0ZM167.34 38.3207C167.34 35.939 167.402 30.722 167.402 23.3327C167.402 15.9434 167.34 10.8702 167.34 7.0796L124.128 4.43617C124.066 9.62701 124.066 39.2454 124.066 46.2073L167.34 38.3207Z" fill="#F44E55"/>
<path d="M177.344 0.972487L194.567 0.483887V7.56796L190.122 7.75113V46.8351L181.974 47.1404V7.99543L177.344 8.11747V0.972487Z" fill="#F44E55"/>
<path d="M196.664 47.1404V1.1165L204.813 0.505859C204.751 3.07511 204.751 12.9637 204.751 23.0401C204.751 33.1164 204.751 43.4371 204.813 46.8569L196.664 47.1404Z" fill="#F44E55"/>
<path d="M208.023 44.6978C208.023 42.9879 208.085 32.9202 208.085 22.8351C208.085 12.7501 208.023 2.80467 208.023 1.09474L216.172 0.483887V41.2169L219.7 43.232V1.11647L227.848 0.505825C227.786 2.40332 227.786 11.847 227.786 21.3301C227.786 30.8132 227.786 40.2615 227.848 42.1547L214.946 47.7729L208.023 44.6978Z" fill="#F44E55"/>
<path d="M236.852 0.789721L244.63 0.353516V7.37646L239.074 7.7428V14.8269L243.766 14.5214V20.5063L239.074 20.8115V40.0045L245.001 41.3481L241.173 47.8213L230.926 45.3176C230.926 42.997 230.987 34.0199 230.987 25.1039C230.987 16.1879 230.926 7.27165 230.926 5.07318L236.852 0.789721Z" fill="#F44E55"/>
</g>
<defs>
<clipPath id="clip0_117_78">
<rect width="245" height="48" fill="white"/>
</clipPath>
</defs>
</svg>
