<svg width="21" height="21" viewBox="0 0 21 21" fill="none" xmlns="http://www.w3.org/2000/svg">
<path d="M20.4053 2.88135L14.7041 0.112793C14.54 0.0410156 14.335 0 14.1299 0C13.9043 0 13.689 0.0512695 13.5249 0.133301L8.13135 2.87109C7.95703 2.95312 7.72119 3.00439 7.49561 3.00439C7.29053 3.00439 7.0957 2.96338 6.94189 2.90186L0.60498 0.0922852C0.522949 0.0615234 0.451172 0.0512695 0.379395 0.0512695C0.153809 0.0512695 0 0.215332 0 0.502441V17.165C0 17.5342 0.266602 17.9546 0.60498 18.0981L6.94189 20.9077C7.0957 20.9692 7.29053 21 7.49561 21C7.72119 21 7.95703 20.959 8.13135 20.8667L13.5249 18.1289C13.689 18.0469 13.9043 18.0059 14.1299 18.0059C14.335 18.0059 14.54 18.0469 14.7041 18.1187L20.4053 20.8872C20.4873 20.918 20.5693 20.9385 20.6411 20.9385C20.8462 20.9385 21 20.7744 21 20.4976V3.83496C21 3.46582 20.7334 3.03516 20.4053 2.88135ZM1.3125 16.8574V1.99951L7.21875 4.57324V19.4312L1.3125 16.8574ZM7.875 19.3696V4.5835L13.7812 1.63037V16.4165L7.875 19.3696ZM19.6875 18.9185L14.4375 16.4268V1.60986L19.6875 4.11182V18.9185Z" fill="#323535"/>
</svg>
